,Ign,Team,Most Played Agents,Kills,Rounds,Kills per round calc,Kills %,Deaths,Deaths %,K/D,Acs,ADR,First Kills,First Deaths,FK/FD Ratio,FK%,FD%,Entry Load%,FKSuccess%,Multikills,Multis per RD,Clutches,Clutch Failures,Clutch %
27,BuZz,DRX,"Killjoy, Jett",717.0,926,0.7742980561555075,0.216420162994265,639,0.19571209800918837,1.1220657276995305,223.0,144.5647948164147,114.0,121.0,0.9421487603305785,0.12311015118790497,0.1306695464362851,0.25377969762419006,0.4851063829787234,175,0.18898488120950324,19,82,0.18811881188118812
67,MaKo,DRX,"Viper, Omen",675.0,962,0.7016632016632016,0.20374283127075157,605,0.18529862174578868,1.115702479338843,209.0,136.16943866943868,76.0,78.0,0.9743589743589743,0.079002079002079,0.08108108108108109,0.1600831600831601,0.4935064935064935,178,0.18503118503118504,18,79,0.18556701030927836
45,Rb,DRX,"Killjoy, Harbor",651.0,962,0.6767151767151767,0.1964986417144582,634,0.19418070444104135,1.026813880126183,192.0,124.08523908523908,85.0,74.0,1.1486486486486487,0.08835758835758836,0.07692307692307693,0.1652806652806653,0.5345911949685535,154,0.1600831600831601,23,109,0.17424242424242425
26,stax,DRX,"Skye, Breach",566.0,962,0.5883575883575883,0.1708421370359191,678,0.20765696784073506,0.8348082595870207,172.0,111.1943866943867,46.0,75.0,0.6133333333333333,0.04781704781704782,0.07796257796257797,0.1257796257796258,0.38016528925619836,122,0.12681912681912683,9,81,0.1
8,Foxy9,DRX,"Jett, Raze",430.0,551,0.7803992740471869,0.12979172955025656,404,0.12373660030627871,1.0643564356435644,226.0,143.6206896551724,125.0,115.0,1.0869565217391304,0.22686025408348456,0.20871143375680581,0.4355716878402904,0.5208333333333334,114,0.20689655172413793,4,26,0.13333333333333333
31,Zest,DRX,"Sova, Fade",274.0,447,0.6129753914988815,0.08270449743434953,305,0.09341500765696784,0.898360655737705,171.0,107.18791946308725,24.0,34.0,0.7058823529411765,0.053691275167785234,0.07606263982102908,0.1297539149888143,0.41379310344827586,64,0.14317673378076062,11,53,0.171875
5,ZmjjKK,EDward Gaming,Jett,329.0,341,0.9648093841642229,0.25824175824175827,254,0.21840068787618228,1.295275590551181,273.0,169.8035190615836,82.0,54.0,1.5185185185185186,0.2404692082111437,0.15835777126099707,0.39882697947214074,0.6029411764705882,89,0.26099706744868034,3,20,0.13043478260869565
57,Smoggy,EDward Gaming,"Breach, Raze, Jett",252.0,341,0.7390029325513197,0.1978021978021978,222,0.19088564058469476,1.135135135135135,197.0,130.46627565982405,28.0,23.0,1.2173913043478262,0.08211143695014662,0.06744868035190615,0.1495601173020528,0.5490196078431373,55,0.16129032258064516,9,37,0.1956521739130435
19,nobody,EDward Gaming,"Skye, Sova",233.0,341,0.6832844574780058,0.18288854003139718,242,0.20808254514187446,0.9628099173553719,190.0,125.66275659824046,19.0,33.0,0.5757575757575758,0.05571847507331378,0.0967741935483871,0.15249266862170088,0.36538461538461536,60,0.17595307917888564,7,27,0.20588235294117646
73,CHICHOO,EDward Gaming,"Cypher, Viper, Killjoy",232.0,341,0.6803519061583577,0.18210361067503925,213,0.1831470335339639,1.0892018779342723,191.0,127.79178885630499,22.0,19.0,1.1578947368421053,0.06451612903225806,0.05571847507331378,0.12023460410557185,0.5365853658536586,52,0.15249266862170088,10,40,0.2
38,Haodong,EDward Gaming,"Omen, Brimstone, Harbor",228.0,341,0.6686217008797654,0.17896389324960754,232,0.1994840928632846,0.9827586206896551,188.0,117.99413489736071,30.0,32.0,0.9375,0.08797653958944282,0.093841642228739,0.18181818181818182,0.4838709677419355,62,0.18181818181818182,6,27,0.18181818181818182
44,Demon1,Evil Geniuses,"Jett, Brimstone",827.0,1043,0.7929050814956855,0.2121056681200308,699,0.18438406752835662,1.1831187410586552,218.0,146.00958772770852,150.0,114.0,1.3157894736842106,0.14381591562799617,0.10930009587727708,0.25311601150527324,0.5681818181818182,218,0.20901246404602108,15,100,0.13043478260869565
15,Boostio,Evil Geniuses,"Killjoy, Astra",821.0,1111,0.738973897389739,0.21056681200307772,790,0.20838828805064627,1.039240506329114,212.0,140.63186318631864,133.0,133.0,1.0,0.11971197119711971,0.11971197119711971,0.23942394239423942,0.5,211,0.18991899189918993,16,79,0.16842105263157894
4,jawgemo,Evil Geniuses,"Raze, Omen",774.0,1111,0.6966696669666966,0.19851243908694538,820,0.2163017673437088,0.9439024390243902,204.0,135.01080108010802,124.0,148.0,0.8378378378378378,0.1116111611161116,0.1332133213321332,0.2448244824482448,0.45588235294117646,192,0.17281728172817282,10,59,0.14492753623188406
55,Ethan,Evil Geniuses,"Skye, Breach",731.0,1111,0.6579657965796579,0.18748397024878174,725,0.1912424162490108,1.0082758620689656,194.0,122.17821782178218,75.0,67.0,1.1194029850746268,0.0675067506750675,0.06030603060306031,0.1278127812781278,0.528169014084507,180,0.162016201620162,20,99,0.16806722689075632
64,C0M,Evil Geniuses,"Sova, Viper",702.0,1111,0.6318631863186318,0.1800461656835086,709,0.18702189395937746,0.9901269393511989,184.0,122.32673267326733,79.0,84.0,0.9404761904761905,0.0711071107110711,0.07560756075607561,0.1467146714671467,0.48466257668711654,173,0.1557155715571557,28,151,0.1564245810055866
18,BcJ,Evil Geniuses,"Astra, Omen, Brimstone",44.0,68,0.6470588235294118,0.011284944857655809,48,0.012661566868900026,0.9166666666666666,188.0,115.57352941176471,5.0,4.0,1.25,0.07352941176470588,0.058823529411764705,0.1323529411764706,0.5555555555555556,11,0.16176470588235295,2,10,0.16666666666666666
16,Derke,FNATIC,"Raze, Jett",702.0,780,0.9,0.23596638655462185,553,0.2348195329087049,1.2694394213381555,259.0,168.71410256410257,200.0,142.0,1.408450704225352,0.2564102564102564,0.18205128205128204,0.43846153846153846,0.5847953216374269,203,0.2602564102564103,5,27,0.15625
72,Chronicle,FNATIC,"Viper, Breach",620.0,780,0.7948717948717948,0.20840336134453782,481,0.20424628450106158,1.288981288981289,222.0,144.12564102564102,69.0,58.0,1.1896551724137931,0.08846153846153847,0.07435897435897436,0.16282051282051282,0.5433070866141733,152,0.19487179487179487,11,50,0.18032786885245902
77,Alfajer,FNATIC,"Killjoy, Cypher",582.0,675,0.8622222222222222,0.19563025210084034,384,0.16305732484076432,1.515625,230.0,152.8,80.0,48.0,1.6666666666666667,0.11851851851851852,0.07111111111111111,0.18962962962962962,0.625,163,0.2414814814814815,18,82,0.18
78,Leo,FNATIC,"Fade, Skye, Sova",556.0,780,0.7128205128205128,0.186890756302521,409,0.17367303609341825,1.3594132029339854,199.0,127.36025641025641,29.0,19.0,1.5263157894736843,0.03717948717948718,0.02435897435897436,0.06153846153846154,0.6041666666666666,133,0.17051282051282052,16,69,0.18823529411764706
76,Boaster,FNATIC,"Astra, Omen, Brimstone",436.0,780,0.558974358974359,0.1465546218487395,464,0.1970276008492569,0.9396551724137931,161.0,100.65,50.0,68.0,0.7352941176470589,0.0641025641025641,0.08717948717948718,0.15128205128205127,0.423728813559322,93,0.11923076923076924,16,35,0.3137254901960784
75,kamyk,FNATIC,"Killjoy, Cypher",79.0,105,0.7523809523809524,0.026554621848739496,64,0.027176220806794056,1.234375,200.0,126.58095238095238,13.0,7.0,1.8571428571428572,0.12380952380952381,0.06666666666666667,0.19047619047619047,0.65,21,0.2,1,13,0.07142857142857142
50,qw1,FUT Esports,"Jett, Neon",657.0,811,0.8101109741060419,0.23795726186164434,539,0.19486623282718726,1.2189239332096475,222.0,140.01479654747226,163.0,135.0,1.2074074074074075,0.20098643649815043,0.16646115906288533,0.36744759556103573,0.5469798657718121,177,0.218249075215783,13,68,0.16049382716049382
20,qRaxs,FUT Esports,KAY/O,544.0,811,0.6707768187422934,0.19703006157189423,577,0.20860448300795373,0.9428076256499134,193.0,123.47102342786683,58.0,60.0,0.9666666666666667,0.07151664611590629,0.07398273736128237,0.14549938347718866,0.4915254237288136,135,0.16646115906288533,7,71,0.08974358974358974
39,MOJJ,FUT Esports,"Killjoy, Cypher",521.0,811,0.6424167694204685,0.18869974646867077,548,0.19812002892263195,0.9507299270072993,181.0,122.84710234278668,58.0,56.0,1.0357142857142858,0.07151664611590629,0.0690505548705302,0.1405672009864365,0.5087719298245614,125,0.15413070283600494,15,82,0.15463917525773196
28,MrFaliN,FUT Esports,Omen,509.0,811,0.6276202219482121,0.18435349511046722,556,0.2010122921185828,0.9154676258992805,179.0,114.557336621455,56.0,80.0,0.7,0.0690505548705302,0.09864364981504316,0.16769420468557336,0.4117647058823529,124,0.15289765721331688,15,86,0.1485148514851485
41,AtaKaptan,FUT Esports,Viper,507.0,773,0.6558861578266494,0.18362911988409997,516,0.18655097613882862,0.9825581395348837,186.0,117.04139715394567,50.0,65.0,0.7692307692307693,0.0646830530401035,0.08408796895213454,0.14877102199223805,0.43478260869565216,123,0.1591203104786546,16,61,0.2077922077922078
0,Muj,FUT Esports,Skye,23.0,38,0.6052631578947368,0.00833031510322347,30,0.010845986984815618,0.7666666666666667,170.0,109.36842105263158,4.0,3.0,1.3333333333333333,0.10526315789473684,0.07894736842105263,0.18421052631578946,0.5714285714285714,4,0.10526315789473684,1,2,0.3333333333333333
49,Fit1nho,Giants Gaming,Jett,565.0,715,0.7902097902097902,0.21806252412196064,474,0.19418271200327736,1.1919831223628692,219.0,141.86993006993006,120.0,90.0,1.3333333333333333,0.16783216783216784,0.1258741258741259,0.2937062937062937,0.5714285714285714,148,0.206993006993007,6,52,0.10344827586206896
25,Cloud,Giants Gaming,"Sova, Skye",546.0,715,0.7636363636363637,0.21072944808954072,498,0.2040147480540762,1.0963855421686748,215.0,142.16503496503498,75.0,83.0,0.9036144578313253,0.1048951048951049,0.11608391608391608,0.22097902097902097,0.47468354430379744,134,0.1874125874125874,10,50,0.16666666666666666
53,nukkye,Giants Gaming,"Killjoy, KAY/O",530.0,715,0.7412587412587412,0.2045542261675029,468,0.19172470299057764,1.1324786324786325,213.0,145.41118881118882,58.0,52.0,1.1153846153846154,0.08111888111888112,0.07272727272727272,0.15384615384615385,0.5272727272727272,134,0.1874125874125874,18,77,0.18947368421052632
42,Hoody,Giants Gaming,Viper,526.0,715,0.7356643356643356,0.20301042068699343,482,0.19746005735354363,1.0912863070539418,211.0,138.68391608391607,65.0,59.0,1.1016949152542372,0.09090909090909091,0.08251748251748252,0.17342657342657342,0.5241935483870968,133,0.18601398601398603,8,94,0.0784313725490196
11,rhyme,Giants Gaming,"Omen, Astra",424.0,715,0.593006993006993,0.16364338093400232,519,0.2126177795985252,0.8169556840077071,167.0,110.7090909090909,48.0,69.0,0.6956521739130435,0.06713286713286713,0.0965034965034965,0.16363636363636364,0.41025641025641024,97,0.13566433566433567,8,51,0.13559322033898305
10,keznit,KRÜ Esports,"Jett, Raze",709.0,826,0.8583535108958837,0.25124025513819986,601,0.2111735769501054,1.1797004991680533,249.0,165.16222760290557,145.0,140.0,1.0357142857142858,0.17554479418886199,0.1694915254237288,0.3450363196125908,0.5087719298245614,191,0.23123486682808717,15,60,0.2
37,Melser,KRÜ Esports,"Omen, Astra",558.0,826,0.6755447941888619,0.19773210489014884,563,0.1978215038650738,0.9911190053285968,189.0,124.38740920096852,62.0,68.0,0.9117647058823529,0.07506053268765134,0.08232445520581114,0.15738498789346247,0.47692307692307695,126,0.15254237288135594,16,87,0.1553398058252427
13,Klaus,KRÜ Esports,"Skye, Sova",516.0,826,0.6246973365617433,0.18284904323175052,598,0.2101194659170766,0.862876254180602,179.0,110.58716707021792,71.0,61.0,1.1639344262295082,0.08595641646489104,0.07384987893462469,0.15980629539951574,0.5378787878787878,113,0.1368038740920097,7,50,0.12280701754385964
52,Daveeys,KRÜ Esports,"KAY/O, Killjoy",492.0,722,0.6814404432132964,0.17434443656980864,470,0.1651440618411806,1.0468085106382978,192.0,123.73130193905817,69.0,69.0,1.0,0.09556786703601108,0.09556786703601108,0.19113573407202217,0.5,115,0.1592797783933518,17,78,0.17894736842105263
62,NagZ,KRÜ Esports,"Killjoy, Viper",461.0,777,0.5933075933075933,0.16335931963146705,498,0.17498243148278286,0.9257028112449799,173.0,117.43758043758044,61.0,50.0,1.22,0.07850707850707851,0.06435006435006435,0.14285714285714285,0.5495495495495496,94,0.12097812097812098,18,96,0.15789473684210525
2,axeddy,KRÜ Esports,"Raze, Viper",86.0,153,0.5620915032679739,0.03047484053862509,116,0.040758959943780745,0.7413793103448276,172.0,112.56209150326798,9.0,23.0,0.391304347826087,0.058823529411764705,0.1503267973856209,0.20915032679738563,0.28125,16,0.10457516339869281,2,12,0.14285714285714285
60,aspas,LOUD,Jett,652.0,723,0.9017980636237898,0.2504802151363811,463,0.19445611087778245,1.408207343412527,249.0,158.8174273858921,124.0,86.0,1.441860465116279,0.1715076071922545,0.11894882434301521,0.29045643153526973,0.5904761904761905,188,0.2600276625172891,15,63,0.19230769230769232
58,Less,LOUD,"Viper, Killjoy",580.0,723,0.8022130013831259,0.2228198232808298,460,0.19319613607727845,1.2608695652173914,226.0,150.7911479944675,70.0,64.0,1.09375,0.09681881051175657,0.08852005532503458,0.18533886583679116,0.5223880597014925,151,0.20885200553250347,17,79,0.17708333333333334
34,cauanzin,LOUD,"Skye, Sova",497.0,723,0.6874135546334716,0.19093353822512485,494,0.20747585048299033,1.0060728744939271,196.0,124.6957123098202,67.0,61.0,1.098360655737705,0.09266943291839558,0.08437067773167359,0.17704011065006917,0.5234375,121,0.1673582295988935,12,49,0.19672131147540983
29,Saadhak,LOUD,KAY/O,438.0,723,0.6058091286307054,0.16826738378793699,500,0.20999580008399832,0.876,190.0,125.2627939142462,79.0,89.0,0.8876404494382022,0.10926694329183956,0.12309820193637622,0.23236514522821577,0.47023809523809523,103,0.14246196403872752,9,62,0.1267605633802817
63,tuyz,LOUD,"Omen, Harbor, Astra",436.0,723,0.603042876901798,0.16749903956972723,464,0.19487610247795045,0.9396551724137931,167.0,107.60580912863071,42.0,45.0,0.9333333333333333,0.058091286307053944,0.06224066390041494,0.12033195020746888,0.4827586206896552,92,0.1272475795297372,11,65,0.14473684210526316
61,s0m,NRG Esports,"Harbor, Omen, Astra",884.0,1166,0.758147512864494,0.21913733267228558,746,0.19321419321419323,1.1849865951742626,205.0,130.38679245283018,92.0,81.0,1.1358024691358024,0.07890222984562607,0.06946826758147513,0.1483704974271012,0.5317919075144508,226,0.19382504288164665,23,91,0.20175438596491227
36,Victor,NRG Esports,"Killjoy, Raze",860.0,1166,0.7375643224699828,0.2131879028259792,788,0.2040922040922041,1.0913705583756346,215.0,141.61234991423672,149.0,141.0,1.0567375886524824,0.12778730703259006,0.120926243567753,0.24871355060034306,0.5137931034482759,204,0.17495711835334476,20,89,0.1834862385321101
35,ardiis,NRG Esports,Jett,849.0,1166,0.7281303602058319,0.21046108081308876,792,0.20512820512820512,1.071969696969697,212.0,140.032590051458,206.0,158.0,1.3037974683544304,0.17667238421955403,0.13550600343053174,0.31217838765008576,0.5659340659340659,214,0.1835334476843911,15,96,0.13513513513513514
69,crashies,NRG Esports,"Skye, Sova",787.0,1166,0.6749571183533448,0.19509172037679723,739,0.1914011914011914,1.0649526387009471,191.0,125.20754716981132,71.0,84.0,0.8452380952380952,0.060891938250428816,0.07204116638078903,0.13293310463121785,0.45806451612903226,188,0.16123499142367068,30,110,0.21428571428571427
33,FiNESSE,NRG Esports,Viper,654.0,1166,0.5608919382504288,0.16212196331184928,796,0.20616420616420617,0.821608040201005,169.0,115.98456260720411,85.0,96.0,0.8854166666666666,0.07289879931389365,0.0823327615780446,0.15523156089193826,0.4696132596685083,143,0.12264150943396226,15,102,0.1282051282051282
7,cNed,Natus Vincere,Jett,737.0,949,0.7766069546891464,0.22374013357619915,691,0.2113796267971857,1.0665701881331404,223.0,146.20337197049525,154.0,145.0,1.0620689655172413,0.16227608008429925,0.15279241306638566,0.3150684931506849,0.5150501672240803,186,0.19599578503688092,10,83,0.10752688172043011
59,SUYGETSU,Natus Vincere,"Viper, Cypher, Killjoy",683.0,949,0.7197049525816649,0.20734669095324834,609,0.18629550321199143,1.1215106732348112,199.0,133.2644889357218,69.0,58.0,1.1896551724137931,0.07270811380400422,0.06111696522655427,0.13382507903055849,0.5433070866141733,160,0.16859852476290832,14,127,0.09929078014184398
22,Zyppan,Natus Vincere,"KAY/O, Skye",656.0,949,0.6912539515279241,0.19914996964177292,667,0.20403793208932394,0.9835082458770614,194.0,129.76712328767124,80.0,73.0,1.095890410958904,0.08429926238145416,0.07692307692307693,0.1612223393045311,0.5228758169934641,160,0.16859852476290832,11,63,0.14864864864864866
74,Shao,Natus Vincere,"Astra, Fade",656.0,949,0.6912539515279241,0.19914996964177292,582,0.178036096665647,1.127147766323024,193.0,129.38145416227607,58.0,50.0,1.16,0.06111696522655427,0.05268703898840885,0.11380400421496312,0.5370370370370371,166,0.1749209694415174,33,133,0.19879518072289157
1,ANGE1,Natus Vincere,Omen,562.0,949,0.5922023182297155,0.1706132361870067,720,0.22025084123585195,0.7805555555555556,175.0,115.67439409905164,134.0,124.0,1.0806451612903225,0.14120126448893572,0.13066385669125394,0.2718651211801897,0.5193798449612403,120,0.12644889357218125,7,42,0.14285714285714285
12,Jinggg,Paper Rex,Raze,756.0,938,0.8059701492537313,0.21868672259184263,673,0.20959202740579258,1.1233283803863299,237.0,158.61727078891258,122.0,109.0,1.1192660550458715,0.1300639658848614,0.1162046908315565,0.2462686567164179,0.5281385281385281,205,0.21855010660980811,9,48,0.15789473684210525
6,f0rsakeN,Paper Rex,,727.0,956,0.7604602510460251,0.2102979461961238,694,0.21613204609156025,1.0475504322766571,221.0,144.09623430962344,150.0,114.0,1.3157894736842106,0.15690376569037656,0.1192468619246862,0.27615062761506276,0.5681818181818182,182,0.1903765690376569,9,49,0.15517241379310345
70,d4v41,Paper Rex,Skye,677.0,936,0.7232905982905983,0.19583453861729824,581,0.18094051697290564,1.1652323580034423,201.0,132.95299145299145,65.0,54.0,1.2037037037037037,0.06944444444444445,0.057692307692307696,0.12713675213675213,0.5462184873949579,161,0.172008547008547,20,117,0.145985401459854
65,mindfreak,Paper Rex,"Astra, Brimstone, Omen",587.0,956,0.6140167364016736,0.1698004049754122,607,0.18903768296480847,0.9670510708401977,172.0,109.06589958158996,57.0,76.0,0.75,0.0596234309623431,0.0794979079497908,0.13912133891213388,0.42857142857142855,131,0.13702928870292888,21,113,0.15671641791044777
71,something,Paper Rex,Jett,415.0,491,0.845213849287169,0.12004628290425225,304,0.09467455621301775,1.3651315789473684,230.0,145.41955193482687,85.0,55.0,1.5454545454545454,0.17311608961303462,0.1120162932790224,0.285132382892057,0.6071428571428571,106,0.2158859470468432,11,33,0.25
21,CigaretteS,Paper Rex,Gekko,186.0,353,0.5269121813031161,0.053803876193231126,251,0.07816879476798505,0.7410358565737052,153.0,98.40509915014164,17.0,31.0,0.5483870967741935,0.04815864022662889,0.08781869688385269,0.1359773371104816,0.3541666666666667,36,0.10198300283286119,6,33,0.15384615384615385
40,Benkai,Paper Rex,"Killjoy, Breach",109.0,150,0.7266666666666667,0.031530228521839745,101,0.03145437558393024,1.0792079207920793,208.0,138.24,13.0,11.0,1.1818181818181819,0.08666666666666667,0.07333333333333333,0.16,0.5416666666666666,27,0.18,3,21,0.125
23,Sayaplayer,T1,"Jett, Raze",774.0,936,0.8269230769230769,0.23756906077348067,653,0.20438184663536776,1.1852986217457886,233.0,152.46153846153845,174.0,154.0,1.12987012987013,0.1858974358974359,0.16452991452991453,0.3504273504273504,0.5304878048780488,205,0.21901709401709402,17,67,0.20238095238095238
48,Munchkin,T1,Killjoy,691.0,936,0.7382478632478633,0.21209330877839166,618,0.19342723004694837,1.1181229773462784,211.0,142.491452991453,90.0,106.0,0.8490566037735849,0.09615384615384616,0.11324786324786325,0.2094017094017094,0.45918367346938777,176,0.18803418803418803,21,106,0.16535433070866143
54,xeta,T1,"Sova, Harbor, Breach, Viper",616.0,936,0.6581196581196581,0.18907305095150398,609,0.19061032863849764,1.0114942528735633,192.0,124.82158119658119,57.0,54.0,1.0555555555555556,0.060897435897435896,0.057692307692307696,0.11858974358974358,0.5135135135135135,160,0.17094017094017094,18,100,0.15254237288135594
24,Carpe,T1,"Skye, Brimstone",568.0,936,0.6068376068376068,0.17434008594229589,655,0.20500782472613457,0.867175572519084,175.0,111.50320512820512,56.0,64.0,0.875,0.05982905982905983,0.06837606837606838,0.1282051282051282,0.4666666666666667,120,0.1282051282051282,11,61,0.1527777777777778
17,ban,T1,"Jett, Omen, Viper",551.0,841,0.6551724137931034,0.16912216083486803,600,0.18779342723004694,0.9183333333333333,186.0,117.90249702734839,94.0,82.0,1.146341463414634,0.1117717003567182,0.09750297265160524,0.20927467300832342,0.5340909090909091,134,0.15933412604042807,13,78,0.14285714285714285
66,iNTRO,T1,"Omen, Viper, Harbor",58.0,95,0.6105263157894737,0.01780233271945979,60,0.018779342723004695,0.9666666666666667,184.0,126.74736842105263,0.0,7.0,0.0,0.0,0.07368421052631578,0.07368421052631578,0.0,16,0.16842105263157894,0,9,0.0
46,Sayf,Team Liquid,"Jett, Raze",799.0,931,0.8582169709989259,0.23125904486251808,619,0.18964460784313725,1.2907915993537964,246.0,158.02255639097746,170.0,132.0,1.2878787878787878,0.18259935553168635,0.14178302900107412,0.32438238453276047,0.5629139072847682,208,0.22341568206229862,16,77,0.17204301075268819
47,nAts,Team Liquid,"Cypher, Viper",767.0,979,0.7834525025536262,0.22199710564399422,642,0.19669117647058823,1.1947040498442367,219.0,142.414708886619,91.0,78.0,1.1666666666666667,0.09295199182839632,0.07967313585291114,0.17262512768130744,0.5384615384615384,200,0.20429009193054137,13,92,0.12380952380952381
51,Jamppi,Team Liquid,"Skye, Sova",692.0,979,0.7068437180796732,0.20028943560057888,650,0.19914215686274508,1.0646153846153845,198.0,128.41368743615934,72.0,79.0,0.9113924050632911,0.0735444330949949,0.08069458631256383,0.15423901940755874,0.4768211920529801,185,0.18896833503575078,25,78,0.24271844660194175
56,soulcas,Team Liquid,"Fade, KAY/O",593.0,979,0.6057201225740552,0.17163531114327063,640,0.19607843137254902,0.9265625,172.0,112.34014300306436,56.0,65.0,0.8615384615384616,0.05720122574055159,0.06639427987742594,0.12359550561797752,0.4628099173553719,138,0.14096016343207354,10,107,0.08547008547008547
30,Redgar,Team Liquid,Omen,572.0,979,0.5842696629213483,0.16555716353111433,678,0.20772058823529413,0.8436578171091446,168.0,108.05005107252298,104.0,112.0,0.9285714285714286,0.1062308478038815,0.11440245148110317,0.22063329928498468,0.48148148148148145,132,0.1348314606741573,10,73,0.12048192771084337
9,Harmii,Team Liquid,Raze,32.0,48,0.6666666666666666,0.009261939218523878,35,0.010723039215686275,0.9142857142857143,175.0,107.66666666666667,5.0,11.0,0.45454545454545453,0.10416666666666667,0.22916666666666666,0.3333333333333333,0.3125,5,0.10416666666666667,0,5,0.0
3,Dep,ZETA DIVISION,"Jett, Raze",631.0,764,0.8259162303664922,0.2342242019302153,570,0.2161547212741752,1.1070175438596492,237.0,150.85602094240838,140.0,116.0,1.206896551724138,0.18324607329842932,0.1518324607329843,0.33507853403141363,0.546875,169,0.2212041884816754,10,56,0.15151515151515152
43,SugarZ3ro,ZETA DIVISION,"Omen, Brimstone",556.0,764,0.7277486910994765,0.20638455827765403,512,0.19416003033750473,1.0859375,204.0,128.79057591623035,41.0,56.0,0.7321428571428571,0.05366492146596859,0.07329842931937172,0.12696335078534032,0.422680412371134,140,0.18324607329842932,7,68,0.09333333333333334
14,TENNN,ZETA DIVISION,"Killjoy, Raze",548.0,764,0.7172774869109948,0.20341499628804752,553,0.20970800151687524,0.9909584086799277,209.0,138.36649214659687,101.0,106.0,0.9528301886792453,0.13219895287958114,0.1387434554973822,0.2709424083769634,0.48792270531400966,127,0.1662303664921466,14,57,0.19718309859154928
68,Laz,ZETA DIVISION,"Sova, Skye",516.0,764,0.675392670157068,0.1915367483296214,482,0.18278346605991658,1.070539419087137,193.0,127.14659685863874,67.0,51.0,1.3137254901960784,0.08769633507853403,0.06675392670157068,0.1544502617801047,0.5677966101694916,115,0.1505235602094241,19,103,0.1557377049180328
32,crow,ZETA DIVISION,"Breach, KAY/O",443.0,764,0.5798429319371727,0.16443949517446177,520,0.19719378081152825,0.8519230769230769,172.0,112.54319371727749,44.0,43.0,1.0232558139534884,0.05759162303664921,0.056282722513089,0.11387434554973822,0.5057471264367817,102,0.13350785340314136,10,73,0.12048192771084337
